…
``` r
extracted
```

    ## # A tibble: 1,177 x 9
    ##    `system:index` CENTER_LAT CENTER_LON COLLECTION          FLAGGED
    ##    <chr>               <dbl>      <dbl> <dttm>              <lgl>  
    ##  1 0000341f1881d~     0.0213      -75.9 2019-02-16 02:50:07 FALSE  
    ##  2 000060bfb25bf~     0.128       -76.0 2019-02-17 06:05:28 FALSE  
    ##  3 0000e7a7dc5b8~     0.256       -76.0 2019-02-14 20:20:45 FALSE  
    ##  4 00008118b0fff~     0.329       -76.3 2019-02-16 18:46:04 FALSE  
    ##  5 0000e9873bc8c~     0.151       -76.3 2019-02-16 02:15:52 FALSE  
    ##  6 000020e797dbe~     0.208       -76.3 2019-02-13 17:05:10 FALSE  
    ##  7 0000e3495486d~     0.189       -76.2 2019-02-16 18:36:53 FALSE  
    ##  8 000060beed62a~     0.191       -76.3 2019-02-11 17:31:32 FALSE  
    ##  9 0000bd28c17ec~     0.0234      -76.3 2019-02-11 03:52:34 FALSE  
    ## 10 00008826fe599~     0.0816      -76.3 2019-02-13 19:34:40 FALSE  
    ## # ... with 1,167 more rows, and 4 more variables: MAPCLASS <dbl>,
    ## #   PLOT_ID <dbl>, USER_ID <chr>, .geo <lgl>
…
