…
Forest Lands = Primary, Secondary, Plantation, Mangrove
Grasslands = Herbland, Shrubland, Paramo
Croplands = Cropland
Wetlands = Aritifical Water, Natural Water
Settlements = Settlement, Infrastructure
Other Lands = Glacial, Non-vegetated, Other, Mosaic
No Data = No Data

``` r
# Adding the Level one classes.
reclassed <- addLevel1(reclassed)
reclassed
```

    ## # A tibble: 220 x 39
    ##    PLOT_ID CENTER_LON CENTER_LAT SIZE_M SHAPE FLAGGED ANALYSES
    ##      <dbl>      <dbl>      <dbl>  <dbl> <chr> <lgl>      <dbl>
    ##  1      35      -76.7      0.129     30 squa~ FALSE          0
    ##  2      37      -78.6     -0.767     30 squa~ FALSE          0
    ##  3      39      -78.7     -2.55      30 squa~ FALSE          0
    ##  4      43      -79.7     -2.31      30 squa~ FALSE          0
    ##  5      45      -77.1     -0.558     30 squa~ FALSE          0
    ##  6      47      -79.3     -4.25      30 squa~ FALSE          0
    ##  7      49      -78.8     -1.26      30 squa~ FALSE          0
    ##  8      23      -78.6     -1.26      30 squa~ FALSE          0
    ##  9      26      -78.6     -1.26      30 squa~ FALSE          0
    ## 10      27      -78.8     -2.07      30 squa~ FALSE          0
    ## # ... with 210 more rows, and 32 more variables: SAMPLE_POINTS <dbl>,
    ## #   USER_ID <chr>, ANALYSIS_DURATION <lgl>, COLLECTION_TIME <dttm>,
    ## #   PL_LONGITUDE <dbl>, PL_LATITUDE <dbl>, PL_PLOTID <dbl>,
    ## #   PL_FID_REFDTA <dbl>, CLASS <dbl>, PRIMARY_TREE <dbl>,
    ## #   SECONDARY_TREE <dbl>, PLANTATION_TREE <dbl>, MANGROVE <dbl>,
    ## #   HERBACEOUS_GRASS_VEGETATION <dbl>, SHRUB_VEGETATION <dbl>,
    ## #   PARAMO_VEGETATION <dbl>, CROPS <dbl>, NATURAL_WATER <dbl>,
    ## #   ARTIFICIAL_WATER <dbl>, WETLAND_VEGETATION <dbl>,
    ## #   HOUSING_STRUCTURE <dbl>, INFRASTRUCTURE <dbl>, ROADS_AND_LOTS <dbl>,
…
