…
Forest Lands = Primary, Secondary, Plantation, Mangrove
Grasslands = Herbland, Shrubland, Paramo
Croplands = Cropland
Wetlands = Aritifical Water, Natural Water
Settlements = Settlement, Infrastructure
Other Lands = Glacial, Non-vegetated, Other, Mosaic
No Data = No Data

``` r
# Adding the Level one classes.
reclassed <- addLevel1(reclassed)
reclassed
```

    ## # A tibble: 6,000 x 38
    ##    PLOT_ID CENTER_LON CENTER_LAT SIZE_M SHAPE FLAGGED ANALYSES
    ##      <dbl>      <dbl>      <dbl>  <dbl> <chr> <lgl>      <dbl>
    ##  1       1      -79.1     -0.139     30 squa~ FALSE          0
    ##  2       2      -79.4     -2.71      30 squa~ FALSE          0
    ##  3       3      -79.4     -0.330     30 squa~ FALSE          0
    ##  4       4      -76.0     -0.822     30 squa~ FALSE          0
    ##  5       5      -79.9     -0.381     30 squa~ FALSE          0
    ##  6       6      -79.8     -3.55      30 squa~ FALSE          0
    ##  7       7      -79.7     -1.03      30 squa~ FALSE          0
    ##  8       8      -79.2     -1.35      30 squa~ FALSE          0
    ##  9       9      -77.2      0.132     30 squa~ FALSE          0
    ## 10      10      -79.1     -0.418     30 squa~ FALSE          0
    ## # ... with 5,990 more rows, and 31 more variables: SAMPLE_POINTS <dbl>,
    ## #   USER_ID <chr>, ANALYSIS_DURATION <lgl>, COLLECTION_TIME <dttm>,
    ## #   PL_LONGITUDE <dbl>, PL_LATITUDE <dbl>, PL_PLOTID <dbl>,
    ## #   PL_CLASS <dbl>, ARBOL_PRIMARIO <dbl>, ARBOL_SECUNDARIO <dbl>,
    ## #   ARBOL_DE_PLANTACION <dbl>, ARBOL_DE_MANGLE <dbl>,
    ## #   VEGETACION_HERBACEA_PASTOS <dbl>, VEGETACION_ARBUSTIVA <dbl>,
    ## #   VEGETACION_DE_PARAMO <dbl>, CULTIVOS <dbl>, AGUA_NATURAL <dbl>,
    ## #   AGUA_ARTIFICIAL <dbl>, VEGETACION_DE_HUMEDALES <dbl>,
    ## #   ESTRUCTURA_DE_VIVIENDA <dbl>, INFRAESTRUCTURA <dbl>,
…
